Data wrangling, visualization, and mapping in R
…
Import data

We will load in the data using a package from the tidyverse called readr. readr is handy because it does extra checks on data consistency over and above what the base R functions do. Dataframes or tibbles imported by readr also print in summary form by default. Lets see how:

### read_csv comes from the readr package, but because readr is part of the tidyverse we need not load it separately
# library(readr)

### import data
dat_input <- read_csv("data/copepods_raw.csv")

### view data
dat_input

## # A tibble: 5,313 x 12
##    silk_id segment_no latitude longitude sample_time_utc project route
##      <dbl>      <dbl>    <dbl>     <dbl> <chr>           <chr>   <chr>
##  1       1          1    -28.3      154. 26/6/09 22:08   AusCPR  BRSY 
##  2       1          5    -28.7      154. 26/6/09 23:12   AusCPR  BRSY 
##  3       1          9    -29.0      154. 27/6/09 0:17    AusCPR  BRSY 
##  4       1         13    -29.3      154. 27/6/09 1:22    AusCPR  BRSY 
##  5       1         17    -29.7      154. 27/6/09 2:26    AusCPR  BRSY 
##  6       1         18    -29.8      154. 27/6/09 2:43    AusCPR  BRSY 
##  7       1         26    -30.4      153. 27/6/09 4:52    AusCPR  BRSY 
##  8       1         30    -30.7      153. 27/6/09 5:57    AusCPR  BRSY 
##  9       1         33    -31.0      153. 27/6/09 6:45    AusCPR  BRSY 
## 10       1         37    -31.3      153. 27/6/09 7:50    AusCPR  BRSY 
## # ... with 5,303 more rows, and 5 more variables: vessel <chr>,
## #   meanlong <dbl>, East <dbl>, `Southern Ocean` <dbl>, West <dbl>
…
Reshape data with tidyr

tidyr contains a number of functions that help with creating tidy data. To help with our situation, the function gather takes wide-format data and converts it to long format. We simply need to specify the variable name of the new variable indicating the region (region), the variable name for the copepod richness measurments (richness_raw), and the three colunns (East, Southern Ocean, and West) in the wide format data that will become values under the region variable in the long (tidy) data format.

# library(tidyr)

dat_input <- 
  gather(data = dat_input, 
         key = region, value = richness_raw, East, `Southern Ocean`, West, 
         na.rm = TRUE)

dat_input

## # A tibble: 5,313 x 11
##    silk_id segment_no latitude longitude sample_time_utc project route
##      <dbl>      <dbl>    <dbl>     <dbl> <chr>           <chr>   <chr>
##  1       1          1    -28.3      154. 26/6/09 22:08   AusCPR  BRSY 
##  2       1          5    -28.7      154. 26/6/09 23:12   AusCPR  BRSY 
##  3       1          9    -29.0      154. 27/6/09 0:17    AusCPR  BRSY 
##  4       1         13    -29.3      154. 27/6/09 1:22    AusCPR  BRSY 
##  5       1         17    -29.7      154. 27/6/09 2:26    AusCPR  BRSY 
##  6       1         18    -29.8      154. 27/6/09 2:43    AusCPR  BRSY 
##  7       1         26    -30.4      153. 27/6/09 4:52    AusCPR  BRSY 
##  8       1         30    -30.7      153. 27/6/09 5:57    AusCPR  BRSY 
##  9       1         33    -31.0      153. 27/6/09 6:45    AusCPR  BRSY 
## 10       1         37    -31.3      153. 27/6/09 7:50    AusCPR  BRSY 
## # ... with 5,303 more rows, and 4 more variables: vessel <chr>,
## #   meanlong <dbl>, region <chr>, richness_raw <dbl>
…
### group dat_std by route
datg <- group_by(dat_std, route)

Look at datg to convince yourself that the data themselves have not changed, but if you type datg into the console it will print out Groups: route [25], indicating the data is grouped by 25 routes.

What we want to do is put group_by together with a summarize:

(dat_std_sum <- 
   summarize(datg,
             mean_rich = mean(richness),
             sd_rich = sd(richness),
             n = n()))

## # A tibble: 25 x 4
##    route mean_rich sd_rich     n
##    <chr>     <dbl>   <dbl> <int>
##  1 ADFR       3.82    4.05   209
##  2 ANHO       1.95    1.81  1345
##  3 AUHO       7.86    4.89    49
##  4 BRER       8.73    8.68    30
##  5 BRFI       3.93    3.52    14
##  6 BRGL      13.7     6.99    33
##  7 BRNC       8.63    7.07    27
##  8 BRSY      11.6     8.22   395
##  9 BUNE       4.60    2.79    57
## 10 FRBO      16.1     6.39    47
## # ... with 15 more rows
And we get a nice summary table of means and standard deviations by routes. To understand the groups a bit better try the summarize on the ungrouped data.

summarize(dat_std, 
          mean_rich = mean(richness),
          sd_rich = sd(richness),
          n = n())

Piping

To run multiple steps like those above we can use a handy feature called pipes. A pipe looks like this %>%. What it does is pipe the output of one function into the first argument of the next. For instance, these too lines of code do the same thing:

### without pipe
group_by(dat_std, route)

## # A tibble: 5,313 x 15
## # Groups:   route [25]
##    silk_id segment_no latitude longitude sample_time_utc project route
##      <dbl>      <dbl>    <dbl>     <dbl> <chr>           <chr>   <chr>
##  1       1          1    -28.3      154. 26/6/09 22:08   AusCPR  BRSY 
##  2       1          5    -28.7      154. 26/6/09 23:12   AusCPR  BRSY 
##  3       1          9    -29.0      154. 27/6/09 0:17    AusCPR  BRSY 
##  4       1         13    -29.3      154. 27/6/09 1:22    AusCPR  BRSY 
##  5       1         17    -29.7      154. 27/6/09 2:26    AusCPR  BRSY 
##  6       1         18    -29.8      154. 27/6/09 2:43    AusCPR  BRSY 
##  7       1         26    -30.4      153. 27/6/09 4:52    AusCPR  BRSY 
##  8       1         30    -30.7      153. 27/6/09 5:57    AusCPR  BRSY 
##  9       1         33    -31.0      153. 27/6/09 6:45    AusCPR  BRSY 
## 10       1         37    -31.3      153. 27/6/09 7:50    AusCPR  BRSY 
## # ... with 5,303 more rows, and 8 more variables: vessel <chr>,
## #   meanlong <dbl>, region <fct>, richness_raw <dbl>,
## #   number_segments <dbl>, meanlat <dbl>, silk_area <dbl>, richness <dbl>

### with pipe
dat_std %>% group_by(., route)

## # A tibble: 5,313 x 15
## # Groups:   route [25]
##    silk_id segment_no latitude longitude sample_time_utc project route
##      <dbl>      <dbl>    <dbl>     <dbl> <chr>           <chr>   <chr>
##  1       1          1    -28.3      154. 26/6/09 22:08   AusCPR  BRSY 
##  2       1          5    -28.7      154. 26/6/09 23:12   AusCPR  BRSY 
##  3       1          9    -29.0      154. 27/6/09 0:17    AusCPR  BRSY 
##  4       1         13    -29.3      154. 27/6/09 1:22    AusCPR  BRSY 
##  5       1         17    -29.7      154. 27/6/09 2:26    AusCPR  BRSY 
##  6       1         18    -29.8      154. 27/6/09 2:43    AusCPR  BRSY 
##  7       1         26    -30.4      153. 27/6/09 4:52    AusCPR  BRSY 
##  8       1         30    -30.7      153. 27/6/09 5:57    AusCPR  BRSY 
##  9       1         33    -31.0      153. 27/6/09 6:45    AusCPR  BRSY 
## 10       1         37    -31.3      153. 27/6/09 7:50    AusCPR  BRSY 
## # ... with 5,303 more rows, and 8 more variables: vessel <chr>,
## #   meanlong <dbl>, region <fct>, richness_raw <dbl>,
## #   number_segments <dbl>, meanlat <dbl>, silk_area <dbl>, richness <dbl>
…
In the first section we tidied up Prof Calanoids and conducted some exploratory (mostly visual) analyses of the relationship between latitude and species richness. But the job isnt done yet.

Prof Calanoids actual hypothesis was about sea surface temperature and she also wanted to see some maps and for us to create an interactive map to share with funders.

In this section of the course we will look at how to combine our copepod data with spatial layers for temperature and then create nice static and interactive maps.

A simple map of sample sites

Lets read in the copepod richness data, and check it out.

cope <- read_csv("data/spatial-data/copepods_standardised.csv")

cope

## # A tibble: 5,313 x 15
##    silk_id segment_no latitude longitude sample_time_utc project route
##      <dbl>      <dbl>    <dbl>     <dbl> <chr>           <chr>   <chr>
##  1       1          1    -28.3      154. 26/6/09 22:08   AusCPR  BRSY 
##  2       1          5    -28.7      154. 26/6/09 23:12   AusCPR  BRSY 
##  3       1          9    -29.0      154. 27/6/09 0:17    AusCPR  BRSY 
##  4       1         13    -29.3      154. 27/6/09 1:22    AusCPR  BRSY 
##  5       1         17    -29.7      154. 27/6/09 2:26    AusCPR  BRSY 
##  6       1         18    -29.8      154. 27/6/09 2:43    AusCPR  BRSY 
##  7       1         26    -30.4      153. 27/6/09 4:52    AusCPR  BRSY 
##  8       1         30    -30.7      153. 27/6/09 5:57    AusCPR  BRSY 
##  9       1         33    -31.0      153. 27/6/09 6:45    AusCPR  BRSY 
## 10       1         37    -31.3      153. 27/6/09 7:50    AusCPR  BRSY 
## # ... with 5,303 more rows, and 8 more variables: vessel <chr>,
## #   meanlong <dbl>, region <chr>, richness_raw <dbl>,
## #   number_segments <dbl>, meanlat <dbl>, silk_area <dbl>, richness <dbl>
…
Extracting temperatures at the sampling sites

We have overlaid our copepod sampling points on the map of temperature, now lets extract the temperature values at those sampling sites, so we can test Prof Calanoids hypothesis about SST and species richness.

First we need to compile a two-column matrix just of the longitudes and latitudes:

pts <- cbind(cope$longitude, cope$latitude)

This matrix gives the coordinates for which we want to extract SST. Now we just use the extract function in the raster package to obtain SST at each site. We can assign the outcome of extract directly back into our dataframe for copepods too:

cope$sst <- raster::extract(x = rsst, y = pts)

cope

## # A tibble: 5,313 x 16
##    silk_id segment_no latitude longitude sample_time_utc project route
##      <dbl>      <dbl>    <dbl>     <dbl> <chr>           <chr>   <chr>
##  1       1          1    -28.3      154. 26/6/09 22:08   AusCPR  BRSY 
##  2       1          5    -28.7      154. 26/6/09 23:12   AusCPR  BRSY 
##  3       1          9    -29.0      154. 27/6/09 0:17    AusCPR  BRSY 
##  4       1         13    -29.3      154. 27/6/09 1:22    AusCPR  BRSY 
##  5       1         17    -29.7      154. 27/6/09 2:26    AusCPR  BRSY 
##  6       1         18    -29.8      154. 27/6/09 2:43    AusCPR  BRSY 
##  7       1         26    -30.4      153. 27/6/09 4:52    AusCPR  BRSY 
##  8       1         30    -30.7      153. 27/6/09 5:57    AusCPR  BRSY 
##  9       1         33    -31.0      153. 27/6/09 6:45    AusCPR  BRSY 
## 10       1         37    -31.3      153. 27/6/09 7:50    AusCPR  BRSY 
## # ... with 5,303 more rows, and 9 more variables: vessel <chr>,
## #   meanlong <dbl>, region <chr>, richness_raw <dbl>,
## #   number_segments <dbl>, meanlat <dbl>, silk_area <dbl>, richness <dbl>,
## #   sst <dbl>
…
